{
  "data": [
    {
      "id": 1,
      "firstName": "Roscoe",
      "lastName": "Gutmann",
      "email": "Kristina.Hilpert@yahoo.com"
    },
    {
      "id": 2,
      "firstName": "Julianne",
      "lastName": "Funk",
      "email": "Austen.Mayert14@hotmail.com"
    },
    {
      "id": 3,
      "firstName": "Hayley",
      "lastName": "Beer",
      "email": "Annabelle.Hahn@hotmail.com"
    },
    {
      "id": 4,
      "firstName": "Alisa",
      "lastName": "Mertz",
      "email": "Sage.Witting@hotmail.com"
    },
    {
      "id": 5,
      "firstName": "Lulu",
      "lastName": "Paucek",
      "email": "Triston91@yahoo.com"
    },
    {
      "id": 6,
      "firstName": "Mohammad",
      "lastName": "Bruen",
      "email": "Chanelle_Morar@yahoo.com"
    },
    {
      "id": 7,
      "firstName": "Reed",
      "lastName": "Sauer",
      "email": "Lillian_Quitzon@hotmail.com"
    },
    {
      "id": 8,
      "firstName": "Mason",
      "lastName": "Langworth",
      "email": "Albert_Raynor62@hotmail.com"
    },
    {
      "id": 9,
      "firstName": "Jadyn",
      "lastName": "Adams",
      "email": "Mariah.Brown@yahoo.com"
    },
    {
      "id": 10,
      "firstName": "Ronaldo",
      "lastName": "Durgan",
      "email": "Angelo75@yahoo.com"
    }
  ]
}
